Capítulo 4 Pruebas de bondad y ajuste | Statistical Notes
…
Bajo esta idea, es importante que utilicemos todas nuestras herramientas estadísticas y probabilísticas para determinan si una distribución \(F\) es adecuada para mi información o no. Más adelante hablaremos un poco acerca del ejemplo anterior, por el momento es bueno tener en claro que deseamos probar la siguiente prueba de hipótesis:

\[
\begin{array}{c}
\textbf{H}_0: \ \mbox{Los datos siguen una distribución} \ \ F_{0}(x) \\
vs\\
\textbf{H}_a: \ \mbox{Los datos no siguen una distribución} \ \ F_{0}(x)
\end{array}
\]

4.1 Funciones de distribución comunes y técnicas de identificación

Consideremos que tenemos los datos correspondientes al tiempo en segundos que tardar en pasar 100 automóviles por un cierto punto en una carretera. ¿Que distribución propondríamos como una primera idea? Aquí se muestran un poco los datos.

# A tibble: 50 × 2
   Observación Tiempos
         <int>   <dbl>
 1           1    32.4
 2           2    28.8
 3           3    36.1
 4           4    28.7
 5           5    28.5
 6           6    34.1
 7           7    28.3
 8           8    33.0
 9           9    39.3
10          10    37.1
# … with 40 more rows
…
