Capítulo 5 Regresión lineal simple | Statistical Notes
…
La manera más sencilla de proponer un conjunto de variables predictoras es ver la relación lineal que tienen estas con la variable respuesta. Esto lo podemos obtener mediante diferentes estadísticas, por ejemplo:

Coeficiente de correlación de pearson: \(\rho_{xy} = r_{xy} = \frac{\sum_{i = 1}^n(x_i-\bar{x})(y_i-\bar{y})}{\sqrt{\sum_{i = 1^n}(x_i-\bar{x})^2}\sqrt{\sum_{i = 1}^n(y_i-\bar{y})^2}}\)

Coeficiente de correlación de spearman: \(r_s = 1- \frac{6\sum d_i^2}{n(n^2-1)}\) donde \(d_i = rango(X_i)-rango(Y_i)\)

Coeficiente de correlación de Kendall: \(\tau = \frac{(\mbox{número de pares concordantes})-(\mbox{número de pares discordantes})}{n \choose 2}\)

Cada uno de las estadísticas anteriores tiene un propósito diferente, \(\rho\) mide la relación lineal entre las variables que se están comparando, el coeficiente de correlación de spearman mide relaciones monótonas (una relación lineal lo es) y el coeficiente de Kendall mide la semejanza en el ordenamiento de los datos cuando se clasifican en rangos por cada una de las cantidades. Todas estas se pueden obtener mediante la función base::cor(x, y, method = c("pearson", "kendall", "spearman")).

Es importante no sólo considerar el primero de los coeficientes de correlación mencionados, ya que puede existir una clara relación entre las variables (como en un conjunto de puntos que dibujen una parábola) y el coeficiente tener un valor de 0. Vamos a tomar los datos dplyr::starwars donde se tienen datos descriptivos de los personajes de la saga Star Wars.

starwars

# A tibble: 87 × 14
   name    height  mass hair_color  skin_color eye_color birth_year sex   gender
   <chr>    <int> <dbl> <chr>       <chr>      <chr>          <dbl> <chr> <chr> 
 1 Luke S…    172    77 blond       fair       blue            19   male  mascu…
 2 C-3PO      167    75 <NA>        gold       yellow         112   none  mascu…
 3 R2-D2       96    32 <NA>        white, bl… red             33   none  mascu…
 4 Darth …    202   136 none        white      yellow          41.9 male  mascu…
 5 Leia O…    150    49 brown       light      brown           19   fema… femin…
 6 Owen L…    178   120 brown, grey light      blue            52   male  mascu…
 7 Beru W…    165    75 brown       light      blue            47   fema… femin…
 8 R5-D4       97    32 <NA>        white, red red             NA   none  mascu…
 9 Biggs …    183    84 black       light      brown           24   male  mascu…
10 Obi-Wa…    182    77 auburn, wh… fair       blue-gray       57   male  mascu…
# … with 77 more rows, and 5 more variables: homeworld <chr>, species <chr>,
#   films <list>, vehicles <list>, starships <list>
…
Tau de Kendall

Spearman’s rank correlation coefficient

Coefficient of colligation
A comparison of correlation measures

5.2 Variables categóricas

Se puede trabajar con variables categóricas en un modelo de regresión para determinar la importante que tiene una cierta segregación en nuestra variable a modelar. Si bien se podría remplazar todos los valores categóricos por valores numéricos, esto nos ayudaría sólo con valores ordinales. Otra técnica común es la creación de variables dummys a lo cual se le conoce como One-Hot-Encoding.

Para esta sección se utilizarán algunas variables de los tabulados de la encuesta Encuesta Nacional de Ingresos y Gastos de los Hogares (ENIGH). 2018 Nueva serie, específicamente para el estado de Aguascalientes. Nos interesan ciertas variables que se puedan relacionar con el ingreso corriente de los hogares de dicha región y en esta sección nos interesa determinar la importancia del sexo de los jefes del hogar.

# A tibble: 2,306 × 15
   edad_jefe sexo_jefe tot_integ percep_ing ing_cor alimentos vestido calzado
       <dbl> <fct>         <dbl>      <dbl>   <dbl>     <dbl>   <dbl>   <dbl>
 1        74 Hombre            3          3  76404.     5618.     0        0 
 2        48 Hombre            5          5  42988.    20930.   225.     176.
 3        39 Hombre            2          2 580698.    37594.  2015.       0 
 4        70 Mujer             2          2  46253.     2893.    97.8      0 
 5        51 Mujer             4          2  53837.     7367.     0        0 
 6        41 Mujer             4          2 237743.        0      0        0 
 7        57 Mujer             1          1  32607.    11456.     0        0 
 8        53 Hombre            2          2 169918.    30986.   293.    1272.
 9        30 Hombre            3          2  17311.     5773.   533.       0 
10        69 Hombre            4          4 120488.     3986.  1174.       0 
# … with 2,296 more rows, and 7 more variables: vivienda <dbl>, limpieza <dbl>,
#   salud <dbl>, transporte <dbl>, personales <dbl>, educacion <dbl>,
#   esparcimiento <dbl>
…
