Capítulo 3 Tablas de contingencia | Statistical Notes
…
            Statistical Notes

Capítulo 3 Tablas de contingencia

Además de la manera clásica que tenemos en R para generar una tabla de contingencia con base::table() podemos nosotros generar esta. Aquí se dejan tres maneras de hacer una tabla de contingencia apropiada con un data frame, para esto utilizaremos una bas da datos pública con datos de 120 años de las olimpiadas (Athens 1896-Rio 2016) obtenidos de este enlace.

olympics <- read_csv("athlete_events.csv") %>% distinct()
olympics

# A tibble: 269,731 × 15
      ID Name    Sex     Age Height Weight Team   NOC   Games  Year Season City 
   <dbl> <chr>   <chr> <dbl>  <dbl>  <dbl> <chr>  <chr> <chr> <dbl> <chr>  <chr>
 1     1 A Diji… M        24    180     80 China  CHN   1992…  1992 Summer Barc…
 2     2 A Lamu… M        23    170     60 China  CHN   2012…  2012 Summer Lond…
 3     3 Gunnar… M        24     NA     NA Denma… DEN   1920…  1920 Summer Antw…
 4     4 Edgar … M        34     NA     NA Denma… DEN   1900…  1900 Summer Paris
 5     5 Christ… F        21    185     82 Nethe… NED   1988…  1988 Winter Calg…
 6     5 Christ… F        21    185     82 Nethe… NED   1988…  1988 Winter Calg…
 7     5 Christ… F        25    185     82 Nethe… NED   1992…  1992 Winter Albe…
 8     5 Christ… F        25    185     82 Nethe… NED   1992…  1992 Winter Albe…
 9     5 Christ… F        27    185     82 Nethe… NED   1994…  1994 Winter Lill…
10     5 Christ… F        27    185     82 Nethe… NED   1994…  1994 Winter Lill…
# … with 269,721 more rows, and 3 more variables: Sport <chr>, Event <chr>,
#   Medal <chr>
…
medals_by_age <- olympics %>% filter(!is.na(Medal) & !is.na(Age)) %>% 
  group_by(Age) %>% count(Medal) %>%
  nest() %>% 
  mutate(Bronze = map_int(data, ~get_n(.x,"Bronze")), 
         Silver = map_int(data, ~get_n(.x,"Silver")),
         Gold = map_int(data, ~get_n(.x,"Gold"))) %>% 
  dplyr::select(-data)

medals_by_age

# A tibble: 61 × 4
# Groups:   Age [61]
     Age Bronze Silver  Gold
   <dbl>  <int>  <int> <int>
 1    10      1      0     0
 2    11      0      1     0
 3    12      3      3     0
 4    13      2      7     7
 5    14     18     30    27
 6    15     54     67    75
 7    16    105    129   116
 8    17    172    163   199
 9    18    286    294   280
10    19    469    441   459
# … with 51 more rows

En la siguiente propuesta se obtendrá el resultado anterior de una manera sencilla, así que primero se muestra antes de crear la tabla de contingencia.

medals_by_age <- olympics %>% filter(!is.na(Medal) & !is.na(Age)) %>%
  group_by(Age, Medal) %>%
  tally() %>% 
  spread(Medal, n, fill = 0)

medals_by_age

# A tibble: 61 × 4
# Groups:   Age [61]
     Age Bronze  Gold Silver
   <dbl>  <dbl> <dbl>  <dbl>
 1    10      1     0      0
 2    11      0     0      1
 3    12      3     0      3
 4    13      2     7      7
 5    14     18    27     30
 6    15     54    75     67
 7    16    105   116    129
 8    17    172   199    163
 9    18    286   280    294
10    19    469   459    441
# … with 51 more rows
…
